…
    ## Warning: There were 43 warnings in `mutate()`.
    ## The first warning was:
    ## ℹ In argument: `results = map(models, function(mod) broom::tidy(mod, conf.int =
    ##   TRUE))`.
    ## Caused by warning:
    ## ! glm.fit: fitted probabilities numerically 0 or 1 occurred
    ## ℹ Run `dplyr::last_dplyr_warnings()` to see the 42 remaining warnings.

``` r
city_or_results
```

    ## # A tibble: 47 × 4
    ##    city_state         OR conf.low conf.high
    ##    <chr>           <dbl>    <dbl>     <dbl>
    ##  1 Albuquerque, NM 1.77     0.825     3.76 
    ##  2 Atlanta, GA     1.00     0.680     1.46 
    ##  3 Baltimore, MD   0.426    0.324     0.558
    ##  4 Baton Rouge, LA 0.381    0.204     0.684
    ##  5 Birmingham, AL  0.870    0.571     1.31 
    ##  6 Boston, MA      0.674    0.353     1.28 
    ##  7 Buffalo, NY     0.521    0.288     0.936
    ##  8 Charlotte, NC   0.884    0.551     1.39 
    ##  9 Chicago, IL     0.410    0.336     0.501
    ## 10 Cincinnati, OH  0.400    0.231     0.667
    ## # ℹ 37 more rows
…
  pivot_wider(
    names_from  = term,
    values_from = estimate
  ) |>
  mutate(
    r_sq         = r.squared,
    beta1_over_2 = tmin / prcp
  ) |>
  select(.id, r_sq, beta1_over_2)

boot_results
```

    ## # A tibble: 5,000 × 3
    ##    .id    r_sq beta1_over_2
    ##    <chr> <dbl>        <dbl>
    ##  1 0001  0.941        -202.
    ##  2 0002  0.940        -222.
    ##  3 0003  0.944        -166.
    ##  4 0004  0.941        -228.
    ##  5 0005  0.944        -149.
    ##  6 0006  0.938        -172.
    ##  7 0007  0.943        -181.
    ##  8 0008  0.942        -229.
    ##  9 0009  0.938        -152.
    ## 10 0010  0.940        -205.
    ## # ℹ 4,990 more rows
…
